13.4.2011 2:39:16 Settings readFromFile
FINER: ENTRY
13.4.2011 2:39:16 ThreadSaver.Settings readFromFile
CONFIG: port=44444
13.4.2011 2:39:16 ThreadSaver.Settings readFromFile
CONFIG: SaveFolder=images/
13.4.2011 2:39:16 ThreadSaver.Settings readFromFile
CONFIG: floodtimeout=10000
13.4.2011 2:39:16 ThreadSaver.Settings readFromFile
CONFIG: NroImageThreads=3
13.4.2011 2:39:16 ThreadSaver.Settings readFromFile
CONFIG: ThreadList=thread.list
13.4.2011 2:39:16 ThreadSaver.Settings readFromFile
CONFIG: mode=1
13.4.2011 2:39:16 ThreadSaver.Settings readFromFile
CONFIG: ip=127.0.0.1
13.4.2011 2:39:16 ThreadSaver.Settings readFromFile
CONFIG: NroThreadThreads=1
13.4.2011 2:39:16 Settings readFromFile
FINER: RETURN
13.4.2011 2:39:16 ThreadSaver.ThreadWorker parseThreadNro
INFO: Did make folder: C:\Users\Thunderer\workspace\4CTD\images\11742517? false
13.4.2011 2:39:16 ThreadWorker run
FINER: ENTRY 11742517
13.4.2011 2:39:16 ThreadWorker readURL
FINER: ENTRY 11742517
13.4.2011 2:39:17 GUI updateAll
FINER: ENTRY
13.4.2011 2:39:17 GUI updateAll
FINER: RETURN
13.4.2011 2:39:21 GUI updateAll
FINER: ENTRY
13.4.2011 2:39:21 GUI updateAll
FINER: RETURN
13.4.2011 2:39:23 ThreadWorker readURL
FINER: RETURN 11742517
13.4.2011 2:39:23 ThreadWorker saveImages
FINER: ENTRY
13.4.2011 2:39:23 ThreadWorker saveImages
FINER: RETURN
13.4.2011 2:39:23 ThreadWorker processQue
FINER: ENTRY
13.4.2011 2:39:23 ThreadSaver.ThreadWorker processQue
INFO: Thread 11742517 has 93 in que.
13.4.2011 2:39:23 ImageWorker run
FINER: ENTRY
13.4.2011 2:39:24 ThreadSaver.ImageWorker isDone
FINER: null is done.
13.4.2011 2:39:24 ThreadSaver.ThreadWorker processQue
INFO: 1 / 94 done
13.4.2011 2:39:25 GUI updateAll
FINER: ENTRY
13.4.2011 2:39:25 ThreadSaver.FourChanThreadSaver getPercentDone
FINEST: 11742517/1302631638029.jpg = 100
13.4.2011 2:39:25 ThreadSaver.GUI updateAll
FINEST: 11742517/1302631638029.jpg added to GUI
13.4.2011 2:39:25 ThreadSaver.FourChanThreadSaver getStatus
FINEST: 11742517/1302631638029.jpg = Dead
13.4.2011 2:39:25 ThreadSaver.FourChanThreadSaver getPercentDone
FINEST: 11742517/1302631999264.jpg = 100
13.4.2011 2:39:25 ThreadSaver.GUI updateAll
FINEST: 11742517/1302631999264.jpg added to GUI
13.4.2011 2:39:25 ThreadSaver.FourChanThreadSaver getStatus
FINEST: 11742517/1302631999264.jpg = Dead
13.4.2011 2:39:25 ThreadSaver.FourChanThreadSaver getPercentDone
FINEST: 11742517/1302633205935.jpg = 100
13.4.2011 2:39:25 ThreadSaver.GUI updateAll
FINEST: 11742517/1302633205935.jpg added to GUI
13.4.2011 2:39:25 ThreadSaver.FourChanThreadSaver getStatus
FINEST: 11742517/1302633205935.jpg = Dead
13.4.2011 2:39:25 ThreadSaver.FourChanThreadSaver getPercentDone
FINEST: 11742517/1302631398249.jpg = 100
13.4.2011 2:39:25 ThreadSaver.GUI updateAll
FINEST: 11742517/1302631398249.jpg added to GUI
13.4.2011 2:39:25 ThreadSaver.FourChanThreadSaver getStatus
FINEST: 11742517/1302631398249.jpg = Dead
13.4.2011 2:39:25 ThreadSaver.FourChanThreadSaver getPercentDone
FINEST: 11742517/1302634780054.jpg = 100
13.4.2011 2:39:25 ThreadSaver.GUI updateAll
FINEST: 11742517/1302634780054.jpg added to GUI
13.4.2011 2:39:25 ThreadSaver.FourChanThreadSaver getStatus
FINEST: 11742517/1302634780054.jpg = Dead
13.4.2011 2:39:25 ThreadSaver.FourChanThreadSaver getPercentDone
FINEST: 11742517/1302631417029.jpg = 100
13.4.2011 2:39:25 ThreadSaver.GUI updateAll
FINEST: 11742517/1302631417029.jpg added to GUI
13.4.2011 2:39:25 ThreadSaver.FourChanThreadSaver getStatus
FINEST: 11742517/1302631417029.jpg = Dead
13.4.2011 2:39:25 ThreadSaver.FourChanThreadSaver getPercentDone
FINEST: 11742517/1302630759369.jpg = 100
13.4.2011 2:39:25 ThreadSaver.GUI updateAll
FINEST: 11742517/1302630759369.jpg added to GUI
13.4.2011 2:39:25 ThreadSaver.FourChanThreadSaver getStatus
FINEST: 11742517/1302630759369.jpg = Dead
13.4.2011 2:39:25 ThreadSaver.FourChanThreadSaver getPercentDone
FINEST: 11742517/1302630914289.jpg = 100
13.4.2011 2:39:25 ThreadSaver.GUI updateAll
FINEST: 11742517/1302630914289.jpg added to GUI
13.4.2011 2:39:25 ThreadSaver.FourChanThreadSaver getStatus
FINEST: 11742517/1302630914289.jpg = Dead
13.4.2011 2:39:25 ThreadSaver.FourChanThreadSaver getPercentDone
FINEST: 11742517/1302631875872.jpg = 100
13.4.2011 2:39:25 ThreadSaver.GUI updateAll
FINEST: 11742517/1302631875872.jpg added to GUI
13.4.2011 2:39:25 ThreadSaver.FourChanThreadSaver getStatus
FINEST: 11742517/1302631875872.jpg = Dead
13.4.2011 2:39:25 ThreadSaver.FourChanThreadSaver getPercentDone
FINEST: 11742517/1302632062762.jpg = 100
13.4.2011 2:39:25 ThreadSaver.GUI updateAll
FINEST: 11742517/1302632062762.jpg added to GUI
13.4.2011 2:39:25 ThreadSaver.FourChanThreadSaver getStatus
FINEST: 11742517/1302632062762.jpg = Dead
13.4.2011 2:39:25 ThreadSaver.FourChanThreadSaver getPercentDone
FINEST: 11742517/1302632206532.jpg = 100
13.4.2011 2:39:25 ThreadSaver.GUI updateAll
FINEST: 11742517/1302632206532.jpg added to GUI
13.4.2011 2:39:25 ThreadSaver.FourChanThreadSaver getStatus
FINEST: 11742517/1302632206532.jpg = Dead
13.4.2011 2:39:25 ThreadSaver.FourChanThreadSaver getPercentDone
FINEST: 11742517/1302631587743.jpg = 100
13.4.2011 2:39:25 ThreadSaver.GUI updateAll
FINEST: 11742517/1302631587743.jpg added to GUI
13.4.2011 2:39:25 ThreadSaver.FourChanThreadSaver getStatus
FINEST: 11742517/1302631587743.jpg = Dead
13.4.2011 2:39:25 ThreadSaver.FourChanThreadSaver getPercentDone
FINEST: 11742517/1302632399314.jpg = 100
13.4.2011 2:39:25 ThreadSaver.GUI updateAll
FINEST: 11742517/1302632399314.jpg added to GUI
13.4.2011 2:39:25 ThreadSaver.FourChanThreadSaver getStatus
FINEST: 11742517/1302632399314.jpg = Dead
13.4.2011 2:39:25 ThreadSaver.FourChanThreadSaver getPercentDone
FINEST: 11742517/1302634847279.jpg = 100
13.4.2011 2:39:25 ThreadSaver.GUI updateAll
FINEST: 11742517/1302634847279.jpg added to GUI
13.4.2011 2:39:25 ThreadSaver.FourChanThreadSaver getStatus
FINEST: 11742517/1302634847279.jpg = Dead
13.4.2011 2:39:25 ThreadSaver.FourChanThreadSaver getPercentDone
FINEST: 11742517/1302631593551.jpg = 100
13.4.2011 2:39:25 ThreadSaver.GUI updateAll
FINEST: 11742517/1302631593551.jpg added to GUI
13.4.2011 2:39:25 ThreadSaver.FourChanThreadSaver getStatus
FINEST: 11742517/1302631593551.jpg = Dead
13.4.2011 2:39:25 ThreadSaver.FourChanThreadSaver getPercentDone
FINEST: 11742517/1302634051938.jpg = 100
13.4.2011 2:39:25 ThreadSaver.GUI updateAll
FINEST: 11742517/1302634051938.jpg added to GUI
13.4.2011 2:39:25 ThreadSaver.FourChanThreadSaver getStatus
FINEST: 11742517/1302634051938.jpg = Dead
13.4.2011 2:39:25 ThreadSaver.FourChanThreadSaver getPercentDone
FINEST: 11742517/1302633734557.jpg = 100
13.4.2011 2:39:25 ThreadSaver.GUI updateAll
FINEST: 11742517/1302633734557.jpg added to GUI
13.4.2011 2:39:25 ThreadSaver.FourChanThreadSaver getStatus
FINEST: 11742517/1302633734557.jpg = Dead
13.4.2011 2:39:25 ThreadSaver.FourChanThreadSaver getPercentDone
FINEST: 11742517/1302633921444.jpg = 100
13.4.2011 2:39:25 ThreadSaver.GUI updateAll
FINEST: 11742517/1302633921444.jpg added to GUI
13.4.2011 2:39:25 ThreadSaver.FourChanThreadSaver getStatus
FINEST: 11742517/1302633921444.jpg = Dead
13.4.2011 2:39:25 ThreadSaver.FourChanThreadSaver getPercentDone
FINEST: 11742517/1302632425001.jpg = 100
13.4.2011 2:39:25 ThreadSaver.GUI updateAll
FINEST: 11742517/1302632425001.jpg added to GUI
13.4.2011 2:39:25 ThreadSaver.FourChanThreadSaver getStatus
FINEST: 11742517/1302632425001.jpg = Dead
13.4.2011 2:39:25 ThreadSaver.FourChanThreadSaver getPercentDone
FINEST: 11742517/1302631238311.jpg = 100
13.4.2011 2:39:25 ThreadSaver.GUI updateAll
FINEST: 11742517/1302631238311.jpg added to GUI
13.4.2011 2:39:25 ThreadSaver.FourChanThreadSaver getStatus
FINEST: 11742517/1302631238311.jpg = Dead
13.4.2011 2:39:25 ThreadSaver.FourChanThreadSaver getPercentDone
FINEST: 11742517/1302634307413.jpg = 100
13.4.2011 2:39:25 ThreadSaver.GUI updateAll
FINEST: 11742517/1302634307413.jpg added to GUI
13.4.2011 2:39:25 ThreadSaver.FourChanThreadSaver getStatus
FINEST: 11742517/1302634307413.jpg = Dead
13.4.2011 2:39:25 ThreadSaver.FourChanThreadSaver getPercentDone
FINEST: 11742517/1302635094107.jpg = 100
13.4.2011 2:39:25 ThreadSaver.GUI updateAll
FINEST: 11742517/1302635094107.jpg added to GUI
13.4.2011 2:39:25 ThreadSaver.FourChanThreadSaver getStatus
FINEST: 11742517/1302635094107.jpg = Dead
13.4.2011 2:39:25 ThreadSaver.FourChanThreadSaver getPercentDone
FINEST: 11742517/1302633862093.jpg = 100
13.4.2011 2:39:25 ThreadSaver.GUI updateAll
FINEST: 11742517/1302633862093.jpg added to GUI
13.4.2011 2:39:25 ThreadSaver.FourChanThreadSaver getStatus
FINEST: 11742517/1302633862093.jpg = Dead
13.4.2011 2:39:25 ThreadSaver.FourChanThreadSaver getPercentDone
FINEST: 11742517/1302631786770.jpg = 100
13.4.2011 2:39:25 ThreadSaver.GUI updateAll
FINEST: 11742517/1302631786770.jpg added to GUI
13.4.2011 2:39:25 ThreadSaver.FourChanThreadSaver getStatus
FINEST: 11742517/1302631786770.jpg = Dead
13.4.2011 2:39:25 ThreadSaver.FourChanThreadSaver getPercentDone
FINEST: 11742517/1302633491342.jpg = 100
13.4.2011 2:39:25 ThreadSaver.GUI updateAll
FINEST: 11742517/1302633491342.jpg added to GUI
13.4.2011 2:39:25 ThreadSaver.FourChanThreadSaver getStatus
FINEST: 11742517/1302633491342.jpg = Dead
13.4.2011 2:39:25 ThreadSaver.FourChanThreadSaver getPercentDone
FINEST: 11742517/1302631508463.jpg = 100
13.4.2011 2:39:25 ThreadSaver.GUI updateAll
FINEST: 11742517/1302631508463.jpg added to GUI
13.4.2011 2:39:25 ThreadSaver.FourChanThreadSaver getStatus
FINEST: 11742517/1302631508463.jpg = Dead
13.4.2011 2:39:25 ThreadSaver.FourChanThreadSaver getPercentDone
FINEST: 11742517/1302634675208.jpg = 100
13.4.2011 2:39:25 ThreadSaver.GUI updateAll
FINEST: 11742517/1302634675208.jpg added to GUI
13.4.2011 2:39:25 ThreadSaver.FourChanThreadSaver getStatus
FINEST: 11742517/1302634675208.jpg = Dead
13.4.2011 2:39:25 ThreadSaver.FourChanThreadSaver getPercentDone
FINEST: 11742517/1302633407676.jpg = 100
13.4.2011 2:39:25 ThreadSaver.GUI updateAll
FINEST: 11742517/1302633407676.jpg added to GUI
13.4.2011 2:39:25 ThreadSaver.FourChanThreadSaver getStatus
FINEST: 11742517/1302633407676.jpg = Dead
13.4.2011 2:39:25 ThreadSaver.FourChanThreadSaver getPercentDone
FINEST: 11742517/1302631054574.jpg = 100
13.4.2011 2:39:25 ThreadSaver.GUI updateAll
FINEST: 11742517/1302631054574.jpg added to GUI
13.4.2011 2:39:25 ThreadSaver.FourChanThreadSaver getStatus
FINEST: 11742517/1302631054574.jpg = Dead
13.4.2011 2:39:25 ThreadSaver.FourChanThreadSaver getPercentDone
FINEST: 11742517/1302630567214.jpg = 100
13.4.2011 2:39:25 ThreadSaver.GUI updateAll
FINEST: 11742517/1302630567214.jpg added to GUI
13.4.2011 2:39:25 ThreadSaver.FourChanThreadSaver getStatus
FINEST: 11742517/1302630567214.jpg = Dead
13.4.2011 2:39:25 ThreadSaver.FourChanThreadSaver getPercentDone
FINEST: 11742517/1302630701468.jpg = 100
13.4.2011 2:39:25 ThreadSaver.GUI updateAll
FINEST: 11742517/1302630701468.jpg added to GUI
13.4.2011 2:39:25 ThreadSaver.FourChanThreadSaver getStatus
FINEST: 11742517/1302630701468.jpg = Dead
13.4.2011 2:39:25 ThreadSaver.FourChanThreadSaver getPercentDone
FINEST: 11742517/1302631106269.jpg = 100
13.4.2011 2:39:25 ThreadSaver.GUI updateAll
FINEST: 11742517/1302631106269.jpg added to GUI
13.4.2011 2:39:25 ThreadSaver.FourChanThreadSaver getStatus
FINEST: 11742517/1302631106269.jpg = Dead
13.4.2011 2:39:25 ThreadSaver.FourChanThreadSaver getPercentDone
FINEST: 11742517/1302631941193.jpg = 100
13.4.2011 2:39:25 ThreadSaver.GUI updateAll
FINEST: 11742517/1302631941193.jpg added to GUI
13.4.2011 2:39:25 ThreadSaver.FourChanThreadSaver getStatus
FINEST: 11742517/1302631941193.jpg = Dead
13.4.2011 2:39:25 ThreadSaver.FourChanThreadSaver getPercentDone
FINEST: 11742517/1302648807239.jpg = 100
13.4.2011 2:39:25 ThreadSaver.GUI updateAll
FINEST: 11742517/1302648807239.jpg added to GUI
13.4.2011 2:39:25 ThreadSaver.FourChanThreadSaver getStatus
FINEST: 11742517/1302648807239.jpg = Dead
13.4.2011 2:39:25 ThreadSaver.FourChanThreadSaver getPercentDone
FINEST: 11742517/1302632949334.jpg = 100
13.4.2011 2:39:25 ThreadSaver.GUI updateAll
FINEST: 11742517/1302632949334.jpg added to GUI
13.4.2011 2:39:25 ThreadSaver.FourChanThreadSaver getStatus
FINEST: 11742517/1302632949334.jpg = Dead
13.4.2011 2:39:25 ThreadSaver.FourChanThreadSaver getPercentDone
FINEST: 11742517/1302631694874.jpg = 100
13.4.2011 2:39:25 ThreadSaver.GUI updateAll
FINEST: 11742517/1302631694874.jpg added to GUI
13.4.2011 2:39:25 ThreadSaver.FourChanThreadSaver getStatus
FINEST: 11742517/1302631694874.jpg = Dead
13.4.2011 2:39:25 ThreadSaver.FourChanThreadSaver getPercentDone
FINEST: 11742517/1302630409319.jpg = 100
13.4.2011 2:39:25 ThreadSaver.GUI updateAll
FINEST: 11742517/1302630409319.jpg added to GUI
13.4.2011 2:39:25 ThreadSaver.FourChanThreadSaver getStatus
FINEST: 11742517/1302630409319.jpg = Dead
13.4.2011 2:39:25 ThreadSaver.FourChanThreadSaver getPercentDone
FINEST: 11742517/1302630622940.jpg = 100
13.4.2011 2:39:25 ThreadSaver.GUI updateAll
FINEST: 11742517/1302630622940.jpg added to GUI
13.4.2011 2:39:25 ThreadSaver.FourChanThreadSaver getStatus
FINEST: 11742517/1302630622940.jpg = Dead
13.4.2011 2:39:25 ThreadSaver.FourChanThreadSaver getPercentDone
FINEST: 11742517/1302632115816.jpg = 100
13.4.2011 2:39:25 ThreadSaver.GUI updateAll
FINEST: 11742517/1302632115816.jpg added to GUI
13.4.2011 2:39:25 ThreadSaver.FourChanThreadSaver getStatus
FINEST: 11742517/1302632115816.jpg = Dead
13.4.2011 2:39:25 ThreadSaver.FourChanThreadSaver getPercentDone
FINEST: 11742517/1302631456459.jpg = 100
13.4.2011 2:39:25 ThreadSaver.GUI updateAll
FINEST: 11742517/1302631456459.jpg added to GUI
13.4.2011 2:39:25 ThreadSaver.FourChanThreadSaver getStatus
FINEST: 11742517/1302631456459.jpg = Dead
13.4.2011 2:39:25 ThreadSaver.FourChanThreadSaver getPercentDone
FINEST: 11742517/1302631759058.jpg = 100
13.4.2011 2:39:25 ThreadSaver.GUI updateAll
FINEST: 11742517/1302631759058.jpg added to GUI
13.4.2011 2:39:25 ThreadSaver.FourChanThreadSaver getStatus
FINEST: 11742517/1302631759058.jpg = Dead
13.4.2011 2:39:25 ThreadSaver.FourChanThreadSaver getPercentDone
FINEST: 11742517/1302632773603.jpg = 100
13.4.2011 2:39:25 ThreadSaver.GUI updateAll
FINEST: 11742517/1302632773603.jpg added to GUI
13.4.2011 2:39:25 ThreadSaver.FourChanThreadSaver getStatus
FINEST: 11742517/1302632773603.jpg = Dead
13.4.2011 2:39:25 ThreadSaver.FourChanThreadSaver getPercentDone
FINEST: 11742517/1302631551415.jpg = 100
13.4.2011 2:39:25 ThreadSaver.GUI updateAll
FINEST: 11742517/1302631551415.jpg added to GUI
13.4.2011 2:39:25 ThreadSaver.FourChanThreadSaver getStatus
FINEST: 11742517/1302631551415.jpg = Dead
13.4.2011 2:39:25 ThreadSaver.FourChanThreadSaver getPercentDone
FINEST: 11742517/1302630960785.jpg = 100
13.4.2011 2:39:25 ThreadSaver.GUI updateAll
FINEST: 11742517/1302630960785.jpg added to GUI
13.4.2011 2:39:25 ThreadSaver.FourChanThreadSaver getStatus
FINEST: 11742517/1302630960785.jpg = Dead
13.4.2011 2:39:25 ThreadSaver.FourChanThreadSaver getPercentDone
FINEST: 11742517/1302630983101.jpg = 100
13.4.2011 2:39:25 ThreadSaver.GUI updateAll
FINEST: 11742517/1302630983101.jpg added to GUI
13.4.2011 2:39:25 ThreadSaver.FourChanThreadSaver getStatus
FINEST: 11742517/1302630983101.jpg = Dead
13.4.2011 2:39:25 ThreadSaver.FourChanThreadSaver getPercentDone
FINEST: 11742517/1302630999704.jpg = 100
13.4.2011 2:39:25 ThreadSaver.GUI updateAll
FINEST: 11742517/1302630999704.jpg added to GUI
13.4.2011 2:39:25 ThreadSaver.FourChanThreadSaver getStatus
FINEST: 11742517/1302630999704.jpg = Dead
13.4.2011 2:39:25 ThreadSaver.FourChanThreadSaver getPercentDone
FINEST: 11742517/1302631262738.jpg = 100
13.4.2011 2:39:25 ThreadSaver.GUI updateAll
FINEST: 11742517/1302631262738.jpg added to GUI
13.4.2011 2:39:25 ThreadSaver.FourChanThreadSaver getStatus
FINEST: 11742517/1302631262738.jpg = Dead
13.4.2011 2:39:25 ThreadSaver.FourChanThreadSaver getPercentDone
FINEST: 11742517/1302631952546.jpg = 100
13.4.2011 2:39:25 ThreadSaver.GUI updateAll
FINEST: 11742517/1302631952546.jpg added to GUI
13.4.2011 2:39:25 ThreadSaver.FourChanThreadSaver getStatus
FINEST: 11742517/1302631952546.jpg = Dead
13.4.2011 2:39:25 ThreadSaver.FourChanThreadSaver getPercentDone
FINEST: 11742517/1302632831547.jpg = 100
13.4.2011 2:39:25 ThreadSaver.GUI updateAll
FINEST: 11742517/1302632831547.jpg added to GUI
13.4.2011 2:39:25 ThreadSaver.FourChanThreadSaver getStatus
FINEST: 11742517/1302632831547.jpg = Dead
13.4.2011 2:39:25 ThreadSaver.FourChanThreadSaver getPercentDone
FINEST: 11742517/1302633073443.jpg = 100
13.4.2011 2:39:25 ThreadSaver.GUI updateAll
FINEST: 11742517/1302633073443.jpg added to GUI
13.4.2011 2:39:25 ThreadSaver.FourChanThreadSaver getStatus
FINEST: 11742517/1302633073443.jpg = Dead
13.4.2011 2:39:25 ThreadSaver.FourChanThreadSaver getPercentDone
FINEST: 11742517/1302631839622.jpg = 100
13.4.2011 2:39:25 ThreadSaver.GUI updateAll
FINEST: 11742517/1302631839622.jpg added to GUI
13.4.2011 2:39:25 ThreadSaver.FourChanThreadSaver getStatus
FINEST: 11742517/1302631839622.jpg = Dead
13.4.2011 2:39:25 ThreadSaver.FourChanThreadSaver getPercentDone
FINEST: 11742517/1302632917720.jpg = 100
13.4.2011 2:39:25 ThreadSaver.GUI updateAll
FINEST: 11742517/1302632917720.jpg added to GUI
13.4.2011 2:39:25 ThreadSaver.FourChanThreadSaver getStatus
FINEST: 11742517/1302632917720.jpg = Dead
13.4.2011 2:39:25 ThreadSaver.FourChanThreadSaver getPercentDone
FINEST: 11742517/1302631465093.jpg = 100
13.4.2011 2:39:25 ThreadSaver.GUI updateAll
FINEST: 11742517/1302631465093.jpg added to GUI
13.4.2011 2:39:25 ThreadSaver.FourChanThreadSaver getStatus
FINEST: 11742517/1302631465093.jpg = Dead
13.4.2011 2:39:25 ThreadSaver.FourChanThreadSaver getPercentDone
FINEST: 11742517/1302632487036.jpg = 100
13.4.2011 2:39:25 ThreadSaver.GUI updateAll
FINEST: 11742517/1302632487036.jpg added to GUI
13.4.2011 2:39:25 ThreadSaver.FourChanThreadSaver getStatus
FINEST: 11742517/1302632487036.jpg = Dead
13.4.2011 2:39:25 ThreadSaver.FourChanThreadSaver getPercentDone
FINEST: 11742517/1302631299935.jpg = 100
13.4.2011 2:39:25 ThreadSaver.GUI updateAll
FINEST: 11742517/1302631299935.jpg added to GUI
13.4.2011 2:39:25 ThreadSaver.FourChanThreadSaver getStatus
FINEST: 11742517/1302631299935.jpg = Dead
13.4.2011 2:39:25 ThreadSaver.FourChanThreadSaver getPercentDone
FINEST: 11742517/1302636459755.jpg = 100
13.4.2011 2:39:25 ThreadSaver.GUI updateAll
FINEST: 11742517/1302636459755.jpg added to GUI
13.4.2011 2:39:25 ThreadSaver.FourChanThreadSaver getStatus
FINEST: 11742517/1302636459755.jpg = Dead
13.4.2011 2:39:25 ThreadSaver.FourChanThreadSaver getPercentDone
FINEST: 11742517/1302631356396.jpg = 100
13.4.2011 2:39:25 ThreadSaver.GUI updateAll
FINEST: 11742517/1302631356396.jpg added to GUI
13.4.2011 2:39:25 ThreadSaver.FourChanThreadSaver getStatus
FINEST: 11742517/1302631356396.jpg = Dead
13.4.2011 2:39:25 ThreadSaver.FourChanThreadSaver getPercentDone
FINEST: 11742517/1302630821781.jpg = 100
13.4.2011 2:39:25 ThreadSaver.GUI updateAll
FINEST: 11742517/1302630821781.jpg added to GUI
13.4.2011 2:39:25 ThreadSaver.FourChanThreadSaver getStatus
FINEST: 11742517/1302630821781.jpg = Dead
13.4.2011 2:39:25 ThreadSaver.FourChanThreadSaver getPercentDone
FINEST: 11742517/1302632990904.jpg = 100
13.4.2011 2:39:25 ThreadSaver.GUI updateAll
FINEST: 11742517/1302632990904.jpg added to GUI
13.4.2011 2:39:25 ThreadSaver.FourChanThreadSaver getStatus
FINEST: 11742517/1302632990904.jpg = Dead
13.4.2011 2:39:25 ThreadSaver.FourChanThreadSaver getPercentDone
FINEST: 11742517/1302630359367.jpg = 100
13.4.2011 2:39:25 ThreadSaver.GUI updateAll
FINEST: 11742517/1302630359367.jpg added to GUI
13.4.2011 2:39:25 ThreadSaver.FourChanThreadSaver getStatus
FINEST: 11742517/1302630359367.jpg = Dead
13.4.2011 2:39:25 ThreadSaver.FourChanThreadSaver getPercentDone
FINEST: 11742517/1302630864867.jpg = 100
13.4.2011 2:39:25 ThreadSaver.GUI updateAll
FINEST: 11742517/1302630864867.jpg added to GUI
13.4.2011 2:39:25 ThreadSaver.FourChanThreadSaver getStatus
FINEST: 11742517/1302630864867.jpg = Dead
13.4.2011 2:39:25 ThreadSaver.FourChanThreadSaver getPercentDone
FINEST: 11742517/1302630909635.jpg = 100
13.4.2011 2:39:25 ThreadSaver.GUI updateAll
FINEST: 11742517/1302630909635.jpg added to GUI
13.4.2011 2:39:25 ThreadSaver.FourChanThreadSaver getStatus
FINEST: 11742517/1302630909635.jpg = Dead
13.4.2011 2:39:25 ThreadSaver.FourChanThreadSaver getPercentDone
FINEST: 11742517/1302634597435.jpg = 100
13.4.2011 2:39:25 ThreadSaver.GUI updateAll
FINEST: 11742517/1302634597435.jpg added to GUI
13.4.2011 2:39:25 ThreadSaver.FourChanThreadSaver getStatus
FINEST: 11742517/1302634597435.jpg = Dead
13.4.2011 2:39:25 ThreadSaver.FourChanThreadSaver getPercentDone
FINEST: 11742517/1302633553028.jpg = 100
13.4.2011 2:39:25 ThreadSaver.GUI updateAll
FINEST: 11742517/1302633553028.jpg added to GUI
13.4.2011 2:39:25 ThreadSaver.FourChanThreadSaver getStatus
FINEST: 11742517/1302633553028.jpg = Dead
13.4.2011 2:39:25 ThreadSaver.FourChanThreadSaver getPercentDone
FINEST: 11742517/1302648398888.jpg = 100
13.4.2011 2:39:25 ThreadSaver.GUI updateAll
FINEST: 11742517/1302648398888.jpg added to GUI
13.4.2011 2:39:25 ThreadSaver.FourChanThreadSaver getStatus
FINEST: 11742517/1302648398888.jpg = Dead
13.4.2011 2:39:25 ThreadSaver.FourChanThreadSaver getPercentDone
FINEST: 11742517/1302632716631.jpg = 100
13.4.2011 2:39:25 ThreadSaver.GUI updateAll
FINEST: 11742517/1302632716631.jpg added to GUI
13.4.2011 2:39:25 ThreadSaver.FourChanThreadSaver getStatus
FINEST: 11742517/1302632716631.jpg = Dead
13.4.2011 2:39:25 ThreadSaver.FourChanThreadSaver getPercentDone
FINEST: 11742517/1302633687068.jpg = 100
13.4.2011 2:39:25 ThreadSaver.GUI updateAll
FINEST: 11742517/1302633687068.jpg added to GUI
13.4.2011 2:39:25 ThreadSaver.FourChanThreadSaver getStatus
FINEST: 11742517/1302633687068.jpg = Dead
13.4.2011 2:39:25 ThreadSaver.FourChanThreadSaver getPercentDone
FINEST: 11742517/1302632883105.jpg = 100
13.4.2011 2:39:25 ThreadSaver.GUI updateAll
FINEST: 11742517/1302632883105.jpg added to GUI
13.4.2011 2:39:25 ThreadSaver.FourChanThreadSaver getStatus
FINEST: 11742517/1302632883105.jpg = Dead
13.4.2011 2:39:25 ThreadSaver.FourChanThreadSaver getPercentDone
FINEST: 11742517/1302631687742.jpg = 100
13.4.2011 2:39:25 ThreadSaver.GUI updateAll
FINEST: 11742517/1302631687742.jpg added to GUI
13.4.2011 2:39:25 ThreadSaver.FourChanThreadSaver getStatus
FINEST: 11742517/1302631687742.jpg = Dead
13.4.2011 2:39:25 ThreadSaver.FourChanThreadSaver getPercentDone
FINEST: 11742517/1302630841770.jpg = 100
13.4.2011 2:39:25 ThreadSaver.GUI updateAll
FINEST: 11742517/1302630841770.jpg added to GUI
13.4.2011 2:39:25 ThreadSaver.FourChanThreadSaver getStatus
FINEST: 11742517/1302630841770.jpg = Dead
13.4.2011 2:39:25 ThreadSaver.FourChanThreadSaver getPercentDone
FINEST: 11742517/1302634504481.jpg = 100
13.4.2011 2:39:25 ThreadSaver.GUI updateAll
FINEST: 11742517/1302634504481.jpg added to GUI
13.4.2011 2:39:25 ThreadSaver.FourChanThreadSaver getStatus
FINEST: 11742517/1302634504481.jpg = Dead
13.4.2011 2:39:25 ThreadSaver.FourChanThreadSaver getPercentDone
FINEST: 11742517/1302632051158.jpg = 100
13.4.2011 2:39:25 ThreadSaver.GUI updateAll
FINEST: 11742517/1302632051158.jpg added to GUI
13.4.2011 2:39:25 ThreadSaver.FourChanThreadSaver getStatus
FINEST: 11742517/1302632051158.jpg = Dead
13.4.2011 2:39:25 ThreadSaver.FourChanThreadSaver getPercentDone
FINEST: 11742517/1302634108097.jpg = 100
13.4.2011 2:39:25 ThreadSaver.GUI updateAll
FINEST: 11742517/1302634108097.jpg added to GUI
13.4.2011 2:39:25 ThreadSaver.FourChanThreadSaver getStatus
FINEST: 11742517/1302634108097.jpg = Dead
13.4.2011 2:39:25 ThreadSaver.FourChanThreadSaver getPercentDone
FINEST: 11742517/1302634005076.jpg = 100
13.4.2011 2:39:25 ThreadSaver.GUI updateAll
FINEST: 11742517/1302634005076.jpg added to GUI
13.4.2011 2:39:25 ThreadSaver.FourChanThreadSaver getStatus
FINEST: 11742517/1302634005076.jpg = Dead
13.4.2011 2:39:25 ThreadSaver.FourChanThreadSaver getPercentDone
FINEST: 11742517/1302633786878.jpg = 100
13.4.2011 2:39:25 ThreadSaver.GUI updateAll
FINEST: 11742517/1302633786878.jpg added to GUI
13.4.2011 2:39:25 ThreadSaver.FourChanThreadSaver getStatus
FINEST: 11742517/1302633786878.jpg = Dead
13.4.2011 2:39:25 ThreadSaver.FourChanThreadSaver getPercentDone
FINEST: 11742517/1302630317416.jpg = 100
13.4.2011 2:39:25 ThreadSaver.GUI updateAll
FINEST: 11742517/1302630317416.jpg added to GUI
13.4.2011 2:39:25 ThreadSaver.FourChanThreadSaver getStatus
FINEST: 11742517/1302630317416.jpg = Dead
13.4.2011 2:39:25 ThreadSaver.FourChanThreadSaver getPercentDone
FINEST: 11742517/1302634221091.jpg = 100
13.4.2011 2:39:25 ThreadSaver.GUI updateAll
FINEST: 11742517/1302634221091.jpg added to GUI
13.4.2011 2:39:25 ThreadSaver.FourChanThreadSaver getStatus
FINEST: 11742517/1302634221091.jpg = Dead
13.4.2011 2:39:25 ThreadSaver.FourChanThreadSaver getPercentDone
FINEST: 11742517/1302633634417.jpg = 100
13.4.2011 2:39:25 ThreadSaver.GUI updateAll
FINEST: 11742517/1302633634417.jpg added to GUI
13.4.2011 2:39:25 ThreadSaver.FourChanThreadSaver getStatus
FINEST: 11742517/1302633634417.jpg = Dead
13.4.2011 2:39:25 ThreadSaver.FourChanThreadSaver getPercentDone
FINEST: 11742517/1302632293146.jpg = 100
13.4.2011 2:39:25 ThreadSaver.GUI updateAll
FINEST: 11742517/1302632293146.jpg added to GUI
13.4.2011 2:39:25 ThreadSaver.FourChanThreadSaver getStatus
FINEST: 11742517/1302632293146.jpg = Dead
13.4.2011 2:39:25 ThreadSaver.FourChanThreadSaver getPercentDone
FINEST: 11742517/1302634926370.jpg = 100
13.4.2011 2:39:25 ThreadSaver.GUI updateAll
FINEST: 11742517/1302634926370.jpg added to GUI
13.4.2011 2:39:25 ThreadSaver.FourChanThreadSaver getStatus
FINEST: 11742517/1302634926370.jpg = Dead
13.4.2011 2:39:25 ThreadSaver.FourChanThreadSaver getPercentDone
FINEST: 11742517/1302633299131.jpg = 100
13.4.2011 2:39:25 ThreadSaver.GUI updateAll
FINEST: 11742517/1302633299131.jpg added to GUI
13.4.2011 2:39:25 ThreadSaver.FourChanThreadSaver getStatus
FINEST: 11742517/1302633299131.jpg = Dead
13.4.2011 2:39:25 ThreadSaver.FourChanThreadSaver getPercentDone
FINEST: 11742517/1302632319714.jpg = 100
13.4.2011 2:39:25 ThreadSaver.GUI updateAll
FINEST: 11742517/1302632319714.jpg added to GUI
13.4.2011 2:39:25 ThreadSaver.FourChanThreadSaver getStatus
FINEST: 11742517/1302632319714.jpg = Dead
13.4.2011 2:39:25 ThreadSaver.FourChanThreadSaver getPercentDone
FINEST: 11742517/1302631155799.jpg = 100
13.4.2011 2:39:25 ThreadSaver.GUI updateAll
FINEST: 11742517/1302631155799.jpg added to GUI
13.4.2011 2:39:25 ThreadSaver.FourChanThreadSaver getStatus
FINEST: 11742517/1302631155799.jpg = Dead
13.4.2011 2:39:25 ThreadSaver.FourChanThreadSaver getPercentDone
FINEST: 11742517/1302630256736.jpg = -1
13.4.2011 2:39:25 ThreadSaver.FourChanThreadSaver getPercentDone
FINEST: 11742517/1302630502039.jpg = 100
13.4.2011 2:39:25 ThreadSaver.GUI updateAll
FINEST: 11742517/1302630502039.jpg added to GUI
13.4.2011 2:39:25 ThreadSaver.FourChanThreadSaver getStatus
FINEST: 11742517/1302630502039.jpg = Dead
13.4.2011 2:39:25 ThreadSaver.FourChanThreadSaver getPercentDone
FINEST: 11742517/1302632589935.jpg = 100
13.4.2011 2:39:25 ThreadSaver.GUI updateAll
FINEST: 11742517/1302632589935.jpg added to GUI
13.4.2011 2:39:25 ThreadSaver.FourChanThreadSaver getStatus
FINEST: 11742517/1302632589935.jpg = Dead
13.4.2011 2:39:25 ThreadSaver.FourChanThreadSaver getPercentDone
FINEST: 11742517/1302634445152.jpg = 100
13.4.2011 2:39:25 ThreadSaver.GUI updateAll
FINEST: 11742517/1302634445152.jpg added to GUI
13.4.2011 2:39:25 ThreadSaver.FourChanThreadSaver getStatus
FINEST: 11742517/1302634445152.jpg = Dead
13.4.2011 2:39:25 ThreadSaver.FourChanThreadSaver getPercentDone
FINEST: 11742517/1302633245384.jpg = 100
13.4.2011 2:39:25 ThreadSaver.GUI updateAll
FINEST: 11742517/1302633245384.jpg added to GUI
13.4.2011 2:39:25 ThreadSaver.FourChanThreadSaver getStatus
FINEST: 11742517/1302633245384.jpg = Dead
13.4.2011 2:39:25 ThreadSaver.FourChanThreadSaver getPercentDone
FINEST: 11742517/1302633133165.jpg = 100
13.4.2011 2:39:25 ThreadSaver.GUI updateAll
FINEST: 11742517/1302633133165.jpg added to GUI
13.4.2011 2:39:25 ThreadSaver.FourChanThreadSaver getStatus
FINEST: 11742517/1302633133165.jpg = Dead
13.4.2011 2:39:25 ThreadSaver.FourChanThreadSaver getPercentDone
FINEST: 11742517/1302632263614.jpg = 100
13.4.2011 2:39:25 ThreadSaver.GUI updateAll
FINEST: 11742517/1302632263614.jpg added to GUI
13.4.2011 2:39:25 ThreadSaver.FourChanThreadSaver getStatus
FINEST: 11742517/1302632263614.jpg = Dead
13.4.2011 2:39:25 ThreadSaver.FourChanThreadSaver getPercentDone
FINEST: 11742517/1302634164677.jpg = 100
13.4.2011 2:39:25 ThreadSaver.GUI updateAll
FINEST: 11742517/1302634164677.jpg added to GUI
13.4.2011 2:39:25 ThreadSaver.FourChanThreadSaver getStatus
FINEST: 11742517/1302634164677.jpg = Dead
13.4.2011 2:39:25 ThreadSaver.FourChanThreadSaver getPercentDone
FINEST: 11742517/1302634383474.jpg = 100
13.4.2011 2:39:25 ThreadSaver.GUI updateAll
FINEST: 11742517/1302634383474.jpg added to GUI
13.4.2011 2:39:25 ThreadSaver.FourChanThreadSaver getStatus
FINEST: 11742517/1302634383474.jpg = Dead
13.4.2011 2:39:25 ThreadSaver.FourChanThreadSaver getPercentDone
FINEST: 11742517/1302632664162.jpg = 100
13.4.2011 2:39:25 ThreadSaver.GUI updateAll
FINEST: 11742517/1302632664162.jpg added to GUI
13.4.2011 2:39:25 ThreadSaver.FourChanThreadSaver getStatus
FINEST: 11742517/1302632664162.jpg = Dead
13.4.2011 2:39:25 ThreadSaver.FourChanThreadSaver getPercentDone
FINEST: 11742517/1302631812380.jpg = 100
13.4.2011 2:39:25 ThreadSaver.GUI updateAll
FINEST: 11742517/1302631812380.jpg added to GUI
13.4.2011 2:39:25 ThreadSaver.FourChanThreadSaver getStatus
FINEST: 11742517/1302631812380.jpg = Dead
13.4.2011 2:39:25 GUI updateAll
FINER: RETURN
13.4.2011 2:39:29 GUI updateAll
FINER: ENTRY
13.4.2011 2:39:29 ThreadSaver.FourChanThreadSaver getPercentDone
FINEST: 11742517/1302630256736.jpg = -1
13.4.2011 2:39:29 GUI updateAll
FINER: RETURN
13.4.2011 2:39:30 ThreadSaver.ImageWorker work
INFO: Skipped file:1302630256736.jpg Already complete!
13.4.2011 2:39:30 ThreadSaver.ImageWorker run
FINEST: ImageWorker 1302630256736.jpg bouncenro: 0
13.4.2011 2:39:30 ImageWorker 1302630256736.jpg run
FINER: RETURN
13.4.2011 2:39:33 GUI updateAll
FINER: ENTRY
13.4.2011 2:39:33 ThreadSaver.FourChanThreadSaver getPercentDone
FINEST: 11742517/1302630256736.jpg = 100
13.4.2011 2:39:33 ThreadSaver.GUI updateAll
FINEST: 11742517/1302630256736.jpg added to GUI
13.4.2011 2:39:33 ThreadSaver.FourChanThreadSaver getStatus
FINEST: 11742517/1302630256736.jpg = Dead
13.4.2011 2:39:33 GUI updateAll
FINER: RETURN
13.4.2011 2:39:34 ThreadSaver.ThreadWorker processQue
INFO: Thread 11742517 has 92 in que.
13.4.2011 2:39:34 ImageWorker run
FINER: ENTRY
13.4.2011 2:39:34 ThreadSaver.ImageWorker isDone
FINER: null is done.
13.4.2011 2:39:34 ThreadSaver.ThreadWorker processQue
INFO: 2 / 94 done
13.4.2011 2:39:34 ThreadSaver.ImageWorker work
INFO: Skipped file:1302630317416.jpg Already complete!
13.4.2011 2:39:34 ThreadSaver.ImageWorker run
FINEST: ImageWorker 1302630317416.jpg bouncenro: 0
13.4.2011 2:39:34 ImageWorker 1302630317416.jpg run
FINER: RETURN
13.4.2011 2:39:37 GUI updateAll
FINER: ENTRY
13.4.2011 2:39:37 GUI updateAll
FINER: RETURN
13.4.2011 2:39:41 GUI updateAll
FINER: ENTRY
13.4.2011 2:39:41 GUI updateAll
FINER: RETURN
13.4.2011 2:39:44 ThreadSaver.ThreadWorker processQue
INFO: Thread 11742517 has 91 in que.
13.4.2011 2:39:44 ImageWorker run
FINER: ENTRY
13.4.2011 2:39:45 GUI updateAll
FINER: ENTRY
13.4.2011 2:39:45 ThreadSaver.ImageWorker isDone
FINER: null is done.
13.4.2011 2:39:45 ThreadSaver.ThreadWorker processQue
INFO: 3 / 94 done
13.4.2011 2:39:45 GUI updateAll
FINER: RETURN
13.4.2011 2:39:45 ThreadSaver.ImageWorker work
INFO: Skipped file:1302630359367.jpg Already complete!
13.4.2011 2:39:45 ThreadSaver.ImageWorker run
FINEST: ImageWorker 1302630359367.jpg bouncenro: 0
13.4.2011 2:39:45 ImageWorker 1302630359367.jpg run
FINER: RETURN
13.4.2011 2:39:49 GUI updateAll
FINER: ENTRY
13.4.2011 2:39:49 GUI updateAll
FINER: RETURN
13.4.2011 2:39:53 GUI updateAll
FINER: ENTRY
13.4.2011 2:39:53 GUI updateAll
FINER: RETURN
13.4.2011 2:39:55 ThreadSaver.ThreadWorker processQue
INFO: Thread 11742517 has 90 in que.
13.4.2011 2:39:55 ImageWorker run
FINER: ENTRY
13.4.2011 2:39:55 ThreadSaver.ImageWorker isDone
FINER: null is done.
13.4.2011 2:39:55 ThreadSaver.ThreadWorker processQue
INFO: 4 / 94 done
13.4.2011 2:39:56 ThreadSaver.ImageWorker work
INFO: Skipped file:1302630409319.jpg Already complete!
13.4.2011 2:39:56 ThreadSaver.ImageWorker run
FINEST: ImageWorker 1302630409319.jpg bouncenro: 0
13.4.2011 2:39:56 ImageWorker 1302630409319.jpg run
FINER: RETURN
13.4.2011 2:39:57 GUI updateAll
FINER: ENTRY
13.4.2011 2:39:57 GUI updateAll
FINER: RETURN
13.4.2011 2:40:01 GUI updateAll
FINER: ENTRY
13.4.2011 2:40:01 GUI updateAll
FINER: RETURN
13.4.2011 2:40:05 GUI updateAll
FINER: ENTRY
13.4.2011 2:40:05 GUI updateAll
FINER: RETURN
13.4.2011 2:40:05 ThreadSaver.ThreadWorker processQue
INFO: Thread 11742517 has 89 in que.
13.4.2011 2:40:05 ImageWorker run
FINER: ENTRY
13.4.2011 2:40:06 ThreadSaver.ImageWorker isDone
FINER: null is done.
13.4.2011 2:40:06 ThreadSaver.ThreadWorker processQue
INFO: 5 / 94 done
13.4.2011 2:40:06 ThreadSaver.ImageWorker work
INFO: Skipped file:1302630502039.jpg Already complete!
13.4.2011 2:40:06 ThreadSaver.ImageWorker run
FINEST: ImageWorker 1302630502039.jpg bouncenro: 0
13.4.2011 2:40:06 ImageWorker 1302630502039.jpg run
FINER: RETURN
13.4.2011 2:40:09 GUI updateAll
FINER: ENTRY
13.4.2011 2:40:09 GUI updateAll
FINER: RETURN
13.4.2011 2:40:13 GUI updateAll
FINER: ENTRY
13.4.2011 2:40:13 GUI updateAll
FINER: RETURN
13.4.2011 2:40:16 ThreadSaver.ThreadWorker processQue
INFO: Thread 11742517 has 88 in que.
13.4.2011 2:40:16 ImageWorker run
FINER: ENTRY
13.4.2011 2:40:16 ThreadSaver.ImageWorker isDone
FINER: null is done.
13.4.2011 2:40:16 ThreadSaver.ThreadWorker processQue
INFO: 6 / 94 done
13.4.2011 2:40:16 ThreadSaver.ImageWorker work
INFO: Skipped file:1302630567214.jpg Already complete!
13.4.2011 2:40:16 ThreadSaver.ImageWorker run
FINEST: ImageWorker 1302630567214.jpg bouncenro: 0
13.4.2011 2:40:16 ImageWorker 1302630567214.jpg run
FINER: RETURN
13.4.2011 2:40:17 GUI updateAll
FINER: ENTRY
13.4.2011 2:40:17 GUI updateAll
FINER: RETURN
13.4.2011 2:40:21 GUI updateAll
FINER: ENTRY
13.4.2011 2:40:21 GUI updateAll
FINER: RETURN
13.4.2011 2:40:25 GUI updateAll
FINER: ENTRY
13.4.2011 2:40:25 GUI updateAll
FINER: RETURN
13.4.2011 2:40:26 ThreadSaver.ThreadWorker processQue
INFO: Thread 11742517 has 87 in que.
13.4.2011 2:40:26 ImageWorker run
FINER: ENTRY
13.4.2011 2:40:27 ThreadSaver.ImageWorker isDone
FINER: null is done.
13.4.2011 2:40:27 ThreadSaver.ThreadWorker processQue
INFO: 7 / 94 done
13.4.2011 2:40:27 ThreadSaver.ImageWorker work
INFO: Skipped file:1302630622940.jpg Already complete!
13.4.2011 2:40:27 ThreadSaver.ImageWorker run
FINEST: ImageWorker 1302630622940.jpg bouncenro: 0
13.4.2011 2:40:27 ImageWorker 1302630622940.jpg run
FINER: RETURN
13.4.2011 2:40:29 GUI updateAll
FINER: ENTRY
13.4.2011 2:40:29 GUI updateAll
FINER: RETURN
13.4.2011 2:40:33 GUI updateAll
FINER: ENTRY
13.4.2011 2:40:33 GUI updateAll
FINER: RETURN
13.4.2011 2:40:37 GUI updateAll
FINER: ENTRY
13.4.2011 2:40:37 ThreadSaver.ThreadWorker processQue
INFO: Thread 11742517 has 86 in que.
13.4.2011 2:40:37 ImageWorker run
FINER: ENTRY
13.4.2011 2:40:37 GUI updateAll
FINER: RETURN
13.4.2011 2:40:37 ThreadSaver.ImageWorker isDone
FINER: null is done.
13.4.2011 2:40:37 ThreadSaver.ThreadWorker processQue
INFO: 8 / 94 done
13.4.2011 2:40:37 ThreadSaver.ImageWorker work
INFO: Skipped file:1302630701468.jpg Already complete!
13.4.2011 2:40:37 ThreadSaver.ImageWorker run
FINEST: ImageWorker 1302630701468.jpg bouncenro: 0
13.4.2011 2:40:37 ImageWorker 1302630701468.jpg run
FINER: RETURN
13.4.2011 2:40:41 GUI updateAll
FINER: ENTRY
13.4.2011 2:40:41 GUI updateAll
FINER: RETURN
13.4.2011 2:40:45 GUI updateAll
FINER: ENTRY
13.4.2011 2:40:45 GUI updateAll
FINER: RETURN
13.4.2011 2:40:47 ThreadSaver.ThreadWorker processQue
INFO: Thread 11742517 has 85 in que.
13.4.2011 2:40:47 ImageWorker run
FINER: ENTRY
13.4.2011 2:40:48 ThreadSaver.ImageWorker isDone
FINER: null is done.
13.4.2011 2:40:48 ThreadSaver.ThreadWorker processQue
INFO: 9 / 94 done
13.4.2011 2:40:48 ThreadSaver.ImageWorker work
INFO: Skipped file:1302630759369.jpg Already complete!
13.4.2011 2:40:48 ThreadSaver.ImageWorker run
FINEST: ImageWorker 1302630759369.jpg bouncenro: 0
13.4.2011 2:40:48 ImageWorker 1302630759369.jpg run
FINER: RETURN
13.4.2011 2:40:49 GUI updateAll
FINER: ENTRY
13.4.2011 2:40:49 GUI updateAll
FINER: RETURN
13.4.2011 2:40:53 GUI updateAll
FINER: ENTRY
13.4.2011 2:40:53 GUI updateAll
FINER: RETURN
13.4.2011 2:40:57 GUI updateAll
FINER: ENTRY
13.4.2011 2:40:57 GUI updateAll
FINER: RETURN
13.4.2011 2:40:58 ThreadSaver.ThreadWorker processQue
INFO: Thread 11742517 has 84 in que.
13.4.2011 2:40:58 ImageWorker run
FINER: ENTRY
13.4.2011 2:40:58 ThreadSaver.ImageWorker isDone
FINER: null is done.
13.4.2011 2:40:58 ThreadSaver.ThreadWorker processQue
INFO: 10 / 94 done
13.4.2011 2:40:59 ThreadSaver.ImageWorker work
INFO: Skipped file:1302630821781.jpg Already complete!
13.4.2011 2:40:59 ThreadSaver.ImageWorker run
FINEST: ImageWorker 1302630821781.jpg bouncenro: 0
13.4.2011 2:40:59 ImageWorker 1302630821781.jpg run
FINER: RETURN
13.4.2011 2:41:01 GUI updateAll
FINER: ENTRY
13.4.2011 2:41:01 GUI updateAll
FINER: RETURN
13.4.2011 2:41:05 GUI updateAll
FINER: ENTRY
13.4.2011 2:41:05 GUI updateAll
FINER: RETURN
13.4.2011 2:41:08 ThreadSaver.ThreadWorker processQue
INFO: Thread 11742517 has 83 in que.
13.4.2011 2:41:08 ImageWorker run
FINER: ENTRY
13.4.2011 2:41:09 GUI updateAll
FINER: ENTRY
13.4.2011 2:41:09 ThreadSaver.ImageWorker isDone
FINER: null is done.
13.4.2011 2:41:09 ThreadSaver.ThreadWorker processQue
INFO: 11 / 94 done
13.4.2011 2:41:09 GUI updateAll
FINER: RETURN
13.4.2011 2:41:09 ThreadSaver.ImageWorker work
INFO: Skipped file:1302630841770.jpg Already complete!
13.4.2011 2:41:09 ThreadSaver.ImageWorker run
FINEST: ImageWorker 1302630841770.jpg bouncenro: 0
13.4.2011 2:41:09 ImageWorker 1302630841770.jpg run
FINER: RETURN
13.4.2011 2:41:13 GUI updateAll
FINER: ENTRY
13.4.2011 2:41:13 GUI updateAll
FINER: RETURN
13.4.2011 2:41:17 GUI updateAll
FINER: ENTRY
13.4.2011 2:41:17 GUI updateAll
FINER: RETURN
13.4.2011 2:41:19 ThreadSaver.ThreadWorker processQue
INFO: Thread 11742517 has 82 in que.
13.4.2011 2:41:19 ImageWorker run
FINER: ENTRY
13.4.2011 2:41:19 ThreadSaver.ImageWorker isDone
FINER: null is done.
13.4.2011 2:41:19 ThreadSaver.ThreadWorker processQue
INFO: 12 / 94 done
13.4.2011 2:41:20 ThreadSaver.ImageWorker work
INFO: Skipped file:1302630864867.jpg Already complete!
13.4.2011 2:41:20 ThreadSaver.ImageWorker run
FINEST: ImageWorker 1302630864867.jpg bouncenro: 0
13.4.2011 2:41:20 ImageWorker 1302630864867.jpg run
FINER: RETURN
13.4.2011 2:41:21 GUI updateAll
FINER: ENTRY
13.4.2011 2:41:21 GUI updateAll
FINER: RETURN
13.4.2011 2:41:25 GUI updateAll
FINER: ENTRY
13.4.2011 2:41:25 GUI updateAll
FINER: RETURN
13.4.2011 2:41:29 GUI updateAll
FINER: ENTRY
13.4.2011 2:41:29 GUI updateAll
FINER: RETURN
13.4.2011 2:41:29 ThreadSaver.ThreadWorker processQue
INFO: Thread 11742517 has 81 in que.
13.4.2011 2:41:29 ImageWorker run
FINER: ENTRY
13.4.2011 2:41:30 ThreadSaver.ImageWorker isDone
FINER: null is done.
13.4.2011 2:41:30 ThreadSaver.ThreadWorker processQue
INFO: 13 / 94 done
13.4.2011 2:41:30 ThreadSaver.ImageWorker work
INFO: Skipped file:1302630909635.jpg Already complete!
13.4.2011 2:41:30 ThreadSaver.ImageWorker run
FINEST: ImageWorker 1302630909635.jpg bouncenro: 0
13.4.2011 2:41:30 ImageWorker 1302630909635.jpg run
FINER: RETURN
13.4.2011 2:41:33 GUI updateAll
FINER: ENTRY
13.4.2011 2:41:33 GUI updateAll
FINER: RETURN
13.4.2011 2:41:37 GUI updateAll
FINER: ENTRY
13.4.2011 2:41:37 GUI updateAll
FINER: RETURN
13.4.2011 2:41:40 ThreadSaver.ThreadWorker processQue
INFO: Thread 11742517 has 80 in que.
13.4.2011 2:41:40 ImageWorker run
FINER: ENTRY
13.4.2011 2:41:40 ThreadSaver.ImageWorker isDone
FINER: null is done.
13.4.2011 2:41:40 ThreadSaver.ThreadWorker processQue
INFO: 14 / 94 done
13.4.2011 2:41:41 GUI updateAll
FINER: ENTRY
13.4.2011 2:41:41 GUI updateAll
FINER: RETURN
13.4.2011 2:41:41 ThreadSaver.ImageWorker work
INFO: Skipped file:1302630914289.jpg Already complete!
13.4.2011 2:41:41 ThreadSaver.ImageWorker run
FINEST: ImageWorker 1302630914289.jpg bouncenro: 0
13.4.2011 2:41:41 ImageWorker 1302630914289.jpg run
FINER: RETURN
13.4.2011 2:41:45 GUI updateAll
FINER: ENTRY
13.4.2011 2:41:45 GUI updateAll
FINER: RETURN
13.4.2011 2:41:49 GUI updateAll
FINER: ENTRY
13.4.2011 2:41:49 GUI updateAll
FINER: RETURN
13.4.2011 2:41:50 ThreadSaver.ThreadWorker processQue
INFO: Thread 11742517 has 79 in que.
13.4.2011 2:41:50 ImageWorker run
FINER: ENTRY
13.4.2011 2:41:51 ThreadSaver.ImageWorker isDone
FINER: null is done.
13.4.2011 2:41:51 ThreadSaver.ThreadWorker processQue
INFO: 15 / 94 done
13.4.2011 2:41:51 ThreadSaver.ImageWorker work
INFO: Skipped file:1302630960785.jpg Already complete!
13.4.2011 2:41:51 ThreadSaver.ImageWorker run
FINEST: ImageWorker 1302630960785.jpg bouncenro: 0
13.4.2011 2:41:51 ImageWorker 1302630960785.jpg run
FINER: RETURN
13.4.2011 2:41:53 GUI updateAll
FINER: ENTRY
13.4.2011 2:41:53 GUI updateAll
FINER: RETURN
13.4.2011 2:41:57 GUI updateAll
FINER: ENTRY
13.4.2011 2:41:57 GUI updateAll
FINER: RETURN
13.4.2011 2:42:01 GUI updateAll
FINER: ENTRY
13.4.2011 2:42:01 ThreadSaver.ThreadWorker processQue
INFO: Thread 11742517 has 78 in que.
13.4.2011 2:42:01 ImageWorker run
FINER: ENTRY
13.4.2011 2:42:01 GUI updateAll
FINER: RETURN
13.4.2011 2:42:01 ThreadSaver.ImageWorker isDone
FINER: null is done.
13.4.2011 2:42:01 ThreadSaver.ThreadWorker processQue
INFO: 16 / 94 done
13.4.2011 2:42:02 ThreadSaver.ImageWorker work
INFO: Skipped file:1302630983101.jpg Already complete!
13.4.2011 2:42:02 ThreadSaver.ImageWorker run
FINEST: ImageWorker 1302630983101.jpg bouncenro: 0
13.4.2011 2:42:02 ImageWorker 1302630983101.jpg run
FINER: RETURN
13.4.2011 2:42:05 GUI updateAll
FINER: ENTRY
13.4.2011 2:42:05 GUI updateAll
FINER: RETURN
13.4.2011 2:42:09 GUI updateAll
FINER: ENTRY
13.4.2011 2:42:09 GUI updateAll
FINER: RETURN
13.4.2011 2:42:11 ThreadSaver.ThreadWorker processQue
INFO: Thread 11742517 has 77 in que.
13.4.2011 2:42:11 ImageWorker run
FINER: ENTRY
13.4.2011 2:42:12 ThreadSaver.ImageWorker isDone
FINER: null is done.
13.4.2011 2:42:12 ThreadSaver.ThreadWorker processQue
INFO: 17 / 94 done
13.4.2011 2:42:12 ThreadSaver.ImageWorker work
INFO: Skipped file:1302630999704.jpg Already complete!
13.4.2011 2:42:12 ThreadSaver.ImageWorker run
FINEST: ImageWorker 1302630999704.jpg bouncenro: 0
13.4.2011 2:42:12 ImageWorker 1302630999704.jpg run
FINER: RETURN
13.4.2011 2:42:13 GUI updateAll
FINER: ENTRY
13.4.2011 2:42:13 GUI updateAll
FINER: RETURN
13.4.2011 2:42:17 GUI updateAll
FINER: ENTRY
13.4.2011 2:42:17 GUI updateAll
FINER: RETURN
13.4.2011 2:42:21 GUI updateAll
FINER: ENTRY
13.4.2011 2:42:21 GUI updateAll
FINER: RETURN
13.4.2011 2:42:22 ThreadSaver.ThreadWorker processQue
INFO: Thread 11742517 has 76 in que.
13.4.2011 2:42:22 ImageWorker run
FINER: ENTRY
13.4.2011 2:42:22 ThreadSaver.ImageWorker isDone
FINER: null is done.
13.4.2011 2:42:22 ThreadSaver.ThreadWorker processQue
INFO: 18 / 94 done
13.4.2011 2:42:23 ThreadSaver.ImageWorker work
INFO: Skipped file:1302631054574.jpg Already complete!
13.4.2011 2:42:23 ThreadSaver.ImageWorker run
FINEST: ImageWorker 1302631054574.jpg bouncenro: 0
13.4.2011 2:42:23 ImageWorker 1302631054574.jpg run
FINER: RETURN
13.4.2011 2:42:25 GUI updateAll
FINER: ENTRY
13.4.2011 2:42:25 GUI updateAll
FINER: RETURN
13.4.2011 2:42:29 GUI updateAll
FINER: ENTRY
13.4.2011 2:42:29 GUI updateAll
FINER: RETURN
13.4.2011 2:42:32 ThreadSaver.ThreadWorker processQue
INFO: Thread 11742517 has 75 in que.
13.4.2011 2:42:32 ImageWorker run
FINER: ENTRY
13.4.2011 2:42:33 GUI updateAll
FINER: ENTRY
13.4.2011 2:42:33 ThreadSaver.ImageWorker isDone
FINER: null is done.
13.4.2011 2:42:33 ThreadSaver.ThreadWorker processQue
INFO: 19 / 94 done
13.4.2011 2:42:33 GUI updateAll
FINER: RETURN
13.4.2011 2:42:33 ThreadSaver.ImageWorker work
INFO: Skipped file:1302631106269.jpg Already complete!
13.4.2011 2:42:33 ThreadSaver.ImageWorker run
FINEST: ImageWorker 1302631106269.jpg bouncenro: 0
13.4.2011 2:42:33 ImageWorker 1302631106269.jpg run
FINER: RETURN
13.4.2011 2:42:37 GUI updateAll
FINER: ENTRY
13.4.2011 2:42:37 GUI updateAll
FINER: RETURN
13.4.2011 2:42:41 GUI updateAll
FINER: ENTRY
13.4.2011 2:42:41 GUI updateAll
FINER: RETURN
13.4.2011 2:42:43 ThreadSaver.ThreadWorker processQue
INFO: Thread 11742517 has 74 in que.
13.4.2011 2:42:43 ImageWorker run
FINER: ENTRY
13.4.2011 2:42:43 ThreadSaver.ImageWorker isDone
FINER: null is done.
13.4.2011 2:42:43 ThreadSaver.ThreadWorker processQue
INFO: 20 / 94 done
13.4.2011 2:42:44 ThreadSaver.ImageWorker work
INFO: Skipped file:1302631155799.jpg Already complete!
13.4.2011 2:42:44 ThreadSaver.ImageWorker run
FINEST: ImageWorker 1302631155799.jpg bouncenro: 0
13.4.2011 2:42:44 ImageWorker 1302631155799.jpg run
FINER: RETURN
13.4.2011 2:42:45 GUI updateAll
FINER: ENTRY
13.4.2011 2:42:45 GUI updateAll
FINER: RETURN
